id;nom_complet_med;email_med;telephone_med;adresse_med;date_naissance_pat
1;Web parsing copying;Real Shore;Realigned deliver;Franc;2021-03-26
2;Tasty Borders compelling;Missouri Wooden innovative;Product Pants;alarm;2021-03-27
3;withdrawal JSON;Frozen bandwidth;SMTP;mobile Handmade;2021-03-27
4;red;Tennessee Port;Forest;Branding;2021-03-27
5;California;repurpose copy Lakes;Kids;scale;2021-03-27
6;Chief edge;Quality;Palestinian;quantifying;2021-03-27
7;Gloves Steel Practical;Concrete;Unbranded enhance;Generic;2021-03-26
8;revolutionize Regional Lead;Loan;Administrator;Intelligent frictionless indigo;2021-03-26
9;Usability;infrastructures;Facilitator even-keeled;Avon;2021-03-26
10;Wisconsin;parsing;feed Chips;Web;2021-03-26
