id;nom_complet_pat;email_pat;telephone_pat;adresse_pat;date_naissance_pat
1;Implemented Money;up;Hat Fresh;static;2021-03-27
2;Ergonomic;HTTP ADP Cross-group;system middleware;Administrator navigate;2021-03-27
3;payment Dynamic;Liaison;firewall Cambridgeshire;Mouse Cross-platform;2021-03-27
4;value-added Program;maroon;Metrics;Buckinghamshire Illinois purple;2021-03-26
5;sky;Station payment;Soap Infrastructure;Future;2021-03-27
6;Gloves Wooden;sexy Shoes Iceland;Facilitator Shirt Towels;modular teal application;2021-03-27
7;index frame parsing;Buckinghamshire;CSS;Baby;2021-03-27
8;Stream intelligence;Arizona Sausages channels;out-of-the-box;Operations JBOD Plastic;2021-03-26
9;24/7 neural;architectures Orchestrator microchip;Cotton;HDD;2021-03-27
10;National;Frozen indexing Analyst;invoice models white;Guiana deposit;2021-03-26
